-r base.txt

Werkzeug[watchdog]==3.0.2  # https://github.com/pallets/werkzeug
ipdb==0.13.13  # https://github.com/gotcha/ipdb
psycopg[binary]==3.1.18  # https://github.com/psycopg/psycopg

# Testing
# -----------------------------------------------------------------------------
mypy==1.7.1  # https://github.com/python/mypy
django-stubs[compatible-mypy]==4.2.7  # https://github.com/typeddjango/django-stubs
pytest==8.2.0  # https://github.com/pytest-dev/pytest
pytest-sugar==1.0.0  # https://github.com/Frozenball/pytest-sugar

# Documentation
# -----------------------------------------------------------------------------
sphinx==7.3.7  # https://github.com/sphinx-doc/sphinx
sphinx-autobuild==2024.4.16  # https://github.com/GaretJax/sphinx-autobuild

# Code quality
# -----------------------------------------------------------------------------
flake8==7.0.0  # https://github.com/PyCQA/flake8
flake8-isort==6.1.1  # https://github.com/gforcada/flake8-isort
coverage==7.4.4  # https://github.com/nedbat/coveragepy
black==24.4.2  # https://github.com/ambv/black
# djlint==1.34.0  # https://github.com/Riverside-Healthcare/djLint
pylint-django==2.5.5  # https://github.com/PyCQA/pylint-django
pre-commit==3.7.0  # https://github.com/pre-commit/pre-commit

# Django
# -----------------------------------------------------------------------------
factory-boy==3.3.0  # https://github.com/FactoryBoy/factory_boy

django-debug-toolbar==4.3.0  # https://github.com/jazzband/django-debug-toolbar
django-coverage-plugin==3.1.0  # https://github.com/nedbat/django_coverage_plugin
pytest-django==4.8.0  # https://github.com/pytest-dev/pytest-django
